%YAML 1.1
%TAG !u! tag:unity3d.com,2011:
--- !u!114 &11400000
MonoBehaviour:
  m_ObjectHideFlags: 0
  m_PrefabParentObject: {fileID: 0}
  m_PrefabInternal: {fileID: 0}
  m_GameObject: {fileID: 0}
  m_Enabled: 1
  m_EditorHideFlags: 0
  m_Script: {fileID: 11500000, guid: e046872889f5b2d4fa8944918d5c1466, type: 3}
  m_Name: KeyItem
  m_EditorClassIdentifier: 
  Name: Key
  Description: To open some door
  Value: 0
  PickupSound: {fileID: 0}
