%YAML 1.1
%TAG !u! tag:unity3d.com,2011:
--- !u!114 &11400000
MonoBehaviour:
  m_ObjectHideFlags: 0
  m_PrefabParentObject: {fileID: 0}
  m_PrefabInternal: {fileID: 0}
  m_GameObject: {fileID: 0}
  m_Enabled: 1
  m_EditorHideFlags: 0
  m_Script: {fileID: 11500000, guid: fe37bf6a457719b408a187c6f5d03c8b, type: 3}
  m_Name: Skeleton
  m_EditorClassIdentifier: 
  Name: Skeleton
  Description: A bad guy...
  Health: 4
  RebirthTime: 3
  HitSound: {fileID: 8300000, guid: 114514a3b3697484ebaa08f7fbf842d3, type: 3}
  DeathSound: {fileID: 8300000, guid: e2beefeb2273f4efe992adf5b8d67c29, type: 3}
